\relax 
\providecommand\hyper@newdestlabel[2]{}
\providecommand\HyperFirstAtBeginDocument{\AtBeginDocument}
\HyperFirstAtBeginDocument{\ifx\hyper@anchor\@undefined
\global\let\oldcontentsline\contentsline
\gdef\contentsline#1#2#3#4{\oldcontentsline{#1}{#2}{#3}}
\global\let\oldnewlabel\newlabel
\gdef\newlabel#1#2{\newlabelxx{#1}#2}
\gdef\newlabelxx#1#2#3#4#5#6{\oldnewlabel{#1}{{#2}{#3}}}
\AtEndDocument{\ifx\hyper@anchor\@undefined
\let\contentsline\oldcontentsline
\let\newlabel\oldnewlabel
\fi}
\fi}
\global\let\hyper@last\relax 
\gdef\HyperFirstAtBeginDocument#1{#1}
\providecommand\HyField@AuxAddToFields[1]{}
\providecommand\HyField@AuxAddToCoFields[2]{}
\@writefile{toc}{\contentsline {chapter}{Abstract}{iii}{chapter*.1}}
\@writefile{toc}{\contentsline {chapter}{Dedication}{iv}{chapter*.2}}
\@writefile{toc}{\contentsline {chapter}{Acknowledgments}{v}{chapter*.3}}
\@writefile{toc}{\contentsline {chapter}{Vita}{vi}{chapter*.4}}
\@writefile{toc}{\contentsline {chapter}{Contents}{vii}{section*.5}}
\citation{nov_explaining_nodate}
\citation{noauthor_sound_nodate}
\citation{sievers_young_nodate}
\citation{noauthor_audacity_nodate}
\citation{noauthor_audacity_nodate}
\citation{noauthor_audacity_nodate}
\@writefile{toc}{\contentsline {chapter}{List of Figures}{ix}{chapter*.7}}
\@writefile{brf}{\backcite{nov_explaining_nodate}{{ix}{(document)}{Doc-Start}}}
\@writefile{brf}{\backcite{noauthor_sound_nodate}{{ix}{(document)}{Doc-Start}}}
\@writefile{brf}{\backcite{sievers_young_nodate}{{ix}{(document)}{Doc-Start}}}
\@writefile{brf}{\backcite{noauthor_audacity_nodate}{{ix}{(document)}{Doc-Start}}}
\@writefile{brf}{\backcite{noauthor_audacity_nodate}{{ix}{(document)}{Doc-Start}}}
\@writefile{brf}{\backcite{noauthor_audacity_nodate}{{ix}{(document)}{Doc-Start}}}
\@writefile{toc}{\contentsline {chapter}{List of Listings}{x}{chapter*.8}}
\citation{mihelj_introduction_2014}
\@writefile{toc}{\vskip .66\baselineskip \relax \hbox to \hsize {CHAPTER \hfil PAGE}}
\@writefile{toc}{\contentsline {chapter}{\numberline {1}Introduction}{1}{chapter.1}}
\@writefile{lof}{\addvspace {10\p@ }}
\@writefile{lot}{\addvspace {10\p@ }}
\@writefile{lol}{\addvspace {10\p@ }}
\@writefile{loa}{\addvspace {10\p@ }}
\newlabel{intro}{{1}{1}{Introduction}{chapter.1}{}}
\@writefile{toc}{\contentsline {section}{\numberline {1.1}Defining Virtual Reality}{1}{section.1.1}}
\citation{mihelj_introduction_2014}
\citation{sherman_understanding_2002}
\citation{sherman_understanding_2002}
\@writefile{brf}{\backcite{mihelj_introduction_2014}{{2}{1.1}{section.1.1}}}
\@writefile{toc}{\contentsline {subsection}{\numberline {1.1.1}Virtual Environment}{2}{subsection.1.1.1}}
\@writefile{brf}{\backcite{mihelj_introduction_2014}{{2}{1.1.1}{subsection.1.1.1}}}
\@writefile{brf}{\backcite{sherman_understanding_2002}{{2}{1.1.1}{subsection.1.1.1}}}
\citation{mihelj_introduction_2014}
\@writefile{toc}{\contentsline {subsection}{\numberline {1.1.2}Virtual Presence}{3}{subsection.1.1.2}}
\@writefile{brf}{\backcite{sherman_understanding_2002}{{3}{1.1.2}{subsection.1.1.2}}}
\@writefile{toc}{\contentsline {subsection}{\numberline {1.1.3}Sensory Feedback}{3}{subsection.1.1.3}}
\citation{sherman_understanding_2002}
\citation{ballora_essentials_2003}
\citation{dodge_computer_1997}
\@writefile{brf}{\backcite{mihelj_introduction_2014}{{4}{1.1.3}{subsection.1.1.3}}}
\@writefile{toc}{\contentsline {subsection}{\numberline {1.1.4}Interactivity}{4}{subsection.1.1.4}}
\@writefile{brf}{\backcite{sherman_understanding_2002}{{4}{1.1.4}{subsection.1.1.4}}}
\@writefile{toc}{\contentsline {section}{\numberline {1.2}Sound Manipulation in Context}{4}{section.1.2}}
\@writefile{brf}{\backcite{ballora_essentials_2003}{{5}{1.2}{section.1.2}}}
\@writefile{brf}{\backcite{dodge_computer_1997}{{5}{1.2}{section.1.2}}}
\citation{mihelj_introduction_2014}
\citation{ballora_essentials_2003}
\citation{ballora_essentials_2003}
\@writefile{toc}{\contentsline {chapter}{\numberline {2}Audio Synthesis and Sampling}{6}{chapter.2}}
\@writefile{lof}{\addvspace {10\p@ }}
\@writefile{lot}{\addvspace {10\p@ }}
\@writefile{lol}{\addvspace {10\p@ }}
\@writefile{loa}{\addvspace {10\p@ }}
\newlabel{text}{{2}{6}{Audio Synthesis and Sampling}{chapter.2}{}}
\@writefile{toc}{\contentsline {section}{\numberline {2.1}Basics of Sound}{6}{section.2.1}}
\newlabel{sec:newsec}{{2.1}{6}{Basics of Sound}{section.2.1}{}}
\@writefile{brf}{\backcite{mihelj_introduction_2014}{{6}{2.1}{section.2.1}}}
\@writefile{brf}{\backcite{ballora_essentials_2003}{{6}{2.1}{section.2.1}}}
\citation{dodge_computer_1997}
\citation{ballora_essentials_2003}
\citation{dodge_computer_1997}
\citation{nov_explaining_nodate}
\citation{nov_explaining_nodate}
\@writefile{lof}{\contentsline {figure}{\numberline {2.1}{\ignorespaces A single period of a sine wave, showing compression and rarefaction.\relax }}{7}{figure.caption.9}}
\providecommand*\caption@xref[2]{\@setref\relax\@undefined{#1}}
\newlabel{fig:waveform_description}{{2.1}{7}{A single period of a sine wave, showing compression and rarefaction.\relax }{figure.caption.9}{}}
\@writefile{brf}{\backcite{ballora_essentials_2003}{{7}{2.1}{figure.caption.9}}}
\@writefile{brf}{\backcite{dodge_computer_1997}{{7}{2.1}{figure.caption.9}}}
\@writefile{brf}{\backcite{ballora_essentials_2003}{{7}{2.1}{figure.caption.9}}}
\citation{noauthor_sound_nodate}
\citation{noauthor_sound_nodate}
\@writefile{lof}{\contentsline {figure}{\numberline {2.2}{\ignorespaces Comparison between a sine wave, a waveform of a guitar, and piano \cite  {nov_explaining_nodate}.\relax }}{8}{figure.caption.10}}
\@writefile{brf}{\backcite{nov_explaining_nodate}{{8}{2.2}{figure.caption.10}}}
\newlabel{fig:wave_comparison}{{2.2}{8}{Comparison between a sine wave, a waveform of a guitar, and piano \cite {nov_explaining_nodate}.\relax }{figure.caption.10}{}}
\@writefile{lof}{\contentsline {figure}{\numberline {2.3}{\ignorespaces Elements of a sound envelope \cite  {noauthor_sound_nodate}.\relax }}{8}{figure.caption.11}}
\@writefile{brf}{\backcite{noauthor_sound_nodate}{{8}{2.3}{figure.caption.11}}}
\newlabel{fig:envelope}{{2.3}{8}{Elements of a sound envelope \cite {noauthor_sound_nodate}.\relax }{figure.caption.11}{}}
\@writefile{brf}{\backcite{dodge_computer_1997}{{8}{2.1}{figure.caption.9}}}
\citation{dodge_computer_1997}
\citation{ballora_essentials_2003}
\citation{dodge_computer_1997}
\citation{ballora_essentials_2003}
\citation{sievers_young_nodate}
\citation{sievers_young_nodate}
\citation{ballora_essentials_2003}
\@writefile{toc}{\contentsline {section}{\numberline {2.2}Waveforms and Their Characteristics}{9}{section.2.2}}
\@writefile{brf}{\backcite{dodge_computer_1997}{{9}{2.2}{section.2.2}}}
\@writefile{brf}{\backcite{ballora_essentials_2003}{{9}{2.2}{section.2.2}}}
\@writefile{brf}{\backcite{dodge_computer_1997}{{9}{2.2}{section.2.2}}}
\@writefile{brf}{\backcite{ballora_essentials_2003}{{9}{2.2}{section.2.2}}}
\@writefile{brf}{\backcite{ballora_essentials_2003}{{9}{2.2}{figure.caption.12}}}
\citation{ballora_essentials_2003}
\@writefile{lof}{\contentsline {figure}{\numberline {2.4}{\ignorespaces The addition of two sine waves to produce a third waveform \cite  {sievers_young_nodate}.\relax }}{10}{figure.caption.12}}
\@writefile{brf}{\backcite{sievers_young_nodate}{{10}{2.4}{figure.caption.12}}}
\newlabel{fig:addingsinewaves}{{2.4}{10}{The addition of two sine waves to produce a third waveform \cite {sievers_young_nodate}.\relax }{figure.caption.12}{}}
\@writefile{toc}{\contentsline {section}{\numberline {2.3}Sampling and Filtering}{10}{section.2.3}}
\citation{noauthor_audacity_nodate}
\citation{noauthor_audacity_nodate}
\citation{noauthor_audacity_nodate}
\citation{noauthor_audacity_nodate}
\citation{ballora_essentials_2003}
\citation{dodge_computer_1997}
\citation{ballora_essentials_2003}
\@writefile{lof}{\contentsline {figure}{\numberline {2.5}{\ignorespaces a. A sinusoidal waveform in Audacity \cite  {noauthor_audacity_nodate}. b. Sampling of the waveform from a.\relax }}{11}{figure.caption.13}}
\@writefile{brf}{\backcite{noauthor_audacity_nodate}{{11}{2.5}{figure.caption.13}}}
\newlabel{fig:samples_figure}{{2.5}{11}{a. A sinusoidal waveform in Audacity \cite {noauthor_audacity_nodate}. b. Sampling of the waveform from a.\relax }{figure.caption.13}{}}
\@writefile{brf}{\backcite{ballora_essentials_2003}{{11}{2.3}{section.2.3}}}
\@writefile{toc}{\contentsline {section}{\numberline {2.4}Synthesis}{11}{section.2.4}}
\@writefile{brf}{\backcite{ballora_essentials_2003}{{11}{2.4}{section.2.4}}}
\citation{ballora_essentials_2003}
\@writefile{lof}{\contentsline {figure}{\numberline {2.6}{\ignorespaces Input (a.) and output of a low-pass filter (b.) in Audacity\cite  {noauthor_audacity_nodate}.\relax }}{12}{figure.caption.14}}
\@writefile{brf}{\backcite{noauthor_audacity_nodate}{{12}{2.6}{figure.caption.14}}}
\newlabel{fig:Filter}{{2.6}{12}{Input (a.) and output of a low-pass filter (b.) in Audacity\cite {noauthor_audacity_nodate}.\relax }{figure.caption.14}{}}
\@writefile{brf}{\backcite{dodge_computer_1997}{{12}{2.4}{section.2.4}}}
\@writefile{brf}{\backcite{ballora_essentials_2003}{{12}{2.4}{section.2.4}}}
\@writefile{brf}{\backcite{ballora_essentials_2003}{{12}{2.4}{section.2.4}}}
\citation{dodge_computer_1997}
\@writefile{lof}{\contentsline {figure}{\numberline {2.7}{\ignorespaces A simple sine wave oscillator using an envelope generator as an amplitude input.\relax }}{13}{figure.caption.15}}
\newlabel{fig:sinewave_oscillator}{{2.7}{13}{A simple sine wave oscillator using an envelope generator as an amplitude input.\relax }{figure.caption.15}{}}
\@writefile{brf}{\backcite{dodge_computer_1997}{{13}{2.4}{equation.2.4.3}}}
\@writefile{toc}{\contentsline {chapter}{\numberline {3}Hardware, Software and Methods Used}{14}{chapter.3}}
\@writefile{lof}{\addvspace {10\p@ }}
\@writefile{lot}{\addvspace {10\p@ }}
\@writefile{lol}{\addvspace {10\p@ }}
\@writefile{loa}{\addvspace {10\p@ }}
\newlabel{bibind}{{3}{14}{Hardware, Software and Methods Used}{chapter.3}{}}
\@writefile{toc}{\contentsline {section}{\numberline {3.1}HTC Vive}{14}{section.3.1}}
\@writefile{toc}{\contentsline {section}{\numberline {3.2}Unity Development Software}{15}{section.3.2}}
\@writefile{toc}{\contentsline {section}{\numberline {3.3}Description of Assets Used}{16}{section.3.3}}
\@writefile{lof}{\contentsline {figure}{\numberline {3.1}{\ignorespaces Order of software tasks.\relax }}{17}{figure.caption.16}}
\newlabel{fig:order_of_tasks}{{3.1}{17}{Order of software tasks.\relax }{figure.caption.16}{}}
\@writefile{toc}{\contentsline {section}{\numberline {3.4}Description of Code}{17}{section.3.4}}
\@writefile{toc}{\contentsline {subsection}{\numberline {3.4.1}Manager Script}{17}{subsection.3.4.1}}
\citation{fusedvr_building_2016}
\@writefile{lol}{\contentsline {lstlisting}{\numberline {3.1}Draw Method}{18}{lstlisting.3.1}}
\newlabel{lst:drawing}{{12}{18}{Manager Script}{lstlisting.3.1}{}}
\@writefile{lol}{\contentsline {lstlisting}{\numberline {3.2}Manager Method}{19}{lstlisting.3.2}}
\newlabel{lst:manager_pseudo}{{4}{19}{Manager Script}{lstlisting.3.2}{}}
\@writefile{toc}{\contentsline {subsection}{\numberline {3.4.2}Mesh Line Renderer Script}{19}{subsection.3.4.2}}
\@writefile{brf}{\backcite{fusedvr_building_2016}{{19}{3.4.2}{subsection.3.4.2}}}
\@writefile{lol}{\contentsline {lstlisting}{\numberline {3.3}Add Line Method}{20}{lstlisting.3.3}}
\newlabel{lst:addline}{{17}{20}{Mesh Line Renderer Script}{lstlisting.3.3}{}}
\citation{fusedvr_building_2016}
\@writefile{toc}{\contentsline {subsubsection}{\numberline {3.4.2.1}Extend Line}{21}{subsubsection.3.4.2.1}}
\@writefile{brf}{\backcite{fusedvr_building_2016}{{21}{3.4.2.1}{subsubsection.3.4.2.1}}}
\@writefile{toc}{\contentsline {subsubsection}{\numberline {3.4.2.2}Calculate Waveform}{21}{subsubsection.3.4.2.2}}
\@writefile{lol}{\contentsline {lstlisting}{\numberline {3.4}Calculate Method}{22}{lstlisting.3.4}}
\newlabel{lst:calcwaveform}{{8}{22}{Calculate Waveform}{lstlisting.3.4}{}}
\@writefile{toc}{\contentsline {subsubsection}{\numberline {3.4.2.3}Interpolate Vectors}{22}{subsubsection.3.4.2.3}}
\@writefile{lol}{\contentsline {lstlisting}{\numberline {3.5}Interpolate Method}{23}{lstlisting.3.5}}
\newlabel{lst:interpolation}{{25}{23}{Interpolate Vectors}{lstlisting.3.5}{}}
\@writefile{toc}{\contentsline {subsubsection}{\numberline {3.4.2.4}Normalize Amplitudes}{24}{subsubsection.3.4.2.4}}
\@writefile{lol}{\contentsline {lstlisting}{\numberline {3.6}Normalize Method}{24}{lstlisting.3.6}}
\newlabel{lst:normalize}{{8}{24}{Normalize Amplitudes}{lstlisting.3.6}{}}
\@writefile{toc}{\contentsline {subsection}{\numberline {3.4.3}Audio Managing Script}{25}{subsection.3.4.3}}
\@writefile{lol}{\contentsline {lstlisting}{\numberline {3.7}Update Waveform Method}{25}{lstlisting.3.7}}
\newlabel{lst:updatewaveform}{{8}{25}{Audio Managing Script}{lstlisting.3.7}{}}
\citation{la_burthe_procedural_2012}
\@writefile{brf}{\backcite{la_burthe_procedural_2012}{{26}{8}{lstlisting.3.7}}}
\@writefile{lol}{\contentsline {lstlisting}{\numberline {3.8}Push to Audio Buffer Method}{27}{lstlisting.3.8}}
\newlabel{lst:pushtobuffer}{{19}{27}{Audio Managing Script}{lstlisting.3.8}{}}
\@writefile{lof}{\contentsline {figure}{\numberline {3.2}{\ignorespaces Drawing and instructions wall within the virtual room.\relax }}{28}{figure.caption.25}}
\newlabel{fig:drawWall}{{3.2}{28}{Drawing and instructions wall within the virtual room.\relax }{figure.caption.25}{}}
\@writefile{toc}{\contentsline {section}{\numberline {3.5}Interacting with the Program}{28}{section.3.5}}
\@writefile{lof}{\contentsline {figure}{\numberline {3.3}{\ignorespaces An example drawing within the virtual environment.\relax }}{29}{figure.caption.26}}
\newlabel{fig:exDrawing}{{3.3}{29}{An example drawing within the virtual environment.\relax }{figure.caption.26}{}}
\@writefile{lof}{\contentsline {figure}{\numberline {3.4}{\ignorespaces The wall opposite of the drawing wall in virtual room.\relax }}{29}{figure.caption.27}}
\newlabel{fig:backWall}{{3.4}{29}{The wall opposite of the drawing wall in virtual room.\relax }{figure.caption.27}{}}
\citation{noauthor_audacity_nodate}
\citation{noauthor_audacity_nodate}
\@writefile{toc}{\contentsline {chapter}{\numberline {4}Results and Analysis}{31}{chapter.4}}
\@writefile{lof}{\addvspace {10\p@ }}
\@writefile{lot}{\addvspace {10\p@ }}
\@writefile{lol}{\addvspace {10\p@ }}
\@writefile{loa}{\addvspace {10\p@ }}
\@writefile{toc}{\contentsline {section}{\numberline {4.1}Survey of Test Subjects}{31}{section.4.1}}
\@writefile{lof}{\contentsline {figure}{\numberline {4.1}{\ignorespaces Sine wave (a.), square wave (b.), and a sawtooth wave displayed in Audacity \cite  {noauthor_audacity_nodate}.\relax }}{31}{figure.caption.28}}
\@writefile{brf}{\backcite{noauthor_audacity_nodate}{{31}{4.1}{figure.caption.28}}}
\newlabel{fig:compareWave}{{4.1}{31}{Sine wave (a.), square wave (b.), and a sawtooth wave displayed in Audacity \cite {noauthor_audacity_nodate}.\relax }{figure.caption.28}{}}
\@writefile{toc}{\contentsline {section}{\numberline {4.2}Data Collected from Participants}{33}{section.4.2}}
\@writefile{lof}{\contentsline {figure}{\numberline {4.2}{\ignorespaces User drawn examples of a sine wave (top left), a square wave (top right), and a sawtooth wave (bottom).\relax }}{34}{figure.caption.29}}
\newlabel{fig:drawnExamples}{{4.2}{34}{User drawn examples of a sine wave (top left), a square wave (top right), and a sawtooth wave (bottom).\relax }{figure.caption.29}{}}
\citation{dodge_computer_1997}
\@writefile{lot}{\contentsline {table}{\numberline {4.1}{\ignorespaces Warm vs. Bright\relax }}{35}{table.caption.30}}
\newlabel{tbl:WvB}{{4.1}{35}{Warm vs. Bright\relax }{table.caption.30}{}}
\@writefile{toc}{\contentsline {subsection}{\numberline {4.2.1}Warm vs. Bright}{35}{subsection.4.2.1}}
\@writefile{brf}{\backcite{dodge_computer_1997}{{35}{4.2.1}{table.caption.30}}}
\citation{dodge_computer_1997}
\@writefile{lot}{\contentsline {table}{\numberline {4.2}{\ignorespaces Smooth vs. Buzzy\relax }}{36}{table.caption.31}}
\newlabel{tbl:SvB}{{4.2}{36}{Smooth vs. Buzzy\relax }{table.caption.31}{}}
\@writefile{toc}{\contentsline {subsection}{\numberline {4.2.2}Smooth vs. Buzzy}{36}{subsection.4.2.2}}
\@writefile{brf}{\backcite{dodge_computer_1997}{{36}{4.2.2}{table.caption.31}}}
\@writefile{lot}{\contentsline {table}{\numberline {4.3}{\ignorespaces Full vs. Hollow\relax }}{37}{table.caption.32}}
\newlabel{tbl:FvT}{{4.3}{37}{Full vs. Hollow\relax }{table.caption.32}{}}
\@writefile{toc}{\contentsline {subsection}{\numberline {4.2.3}Full vs. Hollow}{37}{subsection.4.2.3}}
\@writefile{toc}{\contentsline {subsection}{\numberline {4.2.4}Custom Waveforms}{38}{subsection.4.2.4}}
\newlabel{fig:drawnExamplesAF}{{\caption@xref {fig:drawnExamplesAF}{ on input line 149}}{39}{Custom Waveforms}{figure.caption.33}{}}
\newlabel{fig:drawnExamplesGL}{{\caption@xref {fig:drawnExamplesGL}{ on input line 183}}{40}{Custom Waveforms}{figure.caption.34}{}}
\@writefile{lof}{\contentsline {figure}{\numberline {4.3}{\ignorespaces User drawn custom waveforms.\relax }}{41}{figure.caption.35}}
\newlabel{fig:drawnExamplesMR}{{4.3}{41}{User drawn custom waveforms.\relax }{figure.caption.35}{}}
\@writefile{toc}{\contentsline {section}{\numberline {4.3}Data Analysis}{45}{section.4.3}}
\@writefile{toc}{\contentsline {subsection}{\numberline {4.3.1}Example Waveforms}{45}{subsection.4.3.1}}
\@writefile{toc}{\contentsline {subsection}{\numberline {4.3.2}Custom Waveforms}{47}{subsection.4.3.2}}
\@writefile{lot}{\contentsline {table}{\numberline {4.4}{\ignorespaces Participant timbre classification of custom waveforms\relax }}{48}{table.caption.36}}
\newlabel{tbl:PCW}{{4.4}{48}{Participant timbre classification of custom waveforms\relax }{table.caption.36}{}}
\@writefile{lot}{\contentsline {table}{\numberline {4.5}{\ignorespaces Our timbre classification of participant drawn custom waveforms\relax }}{48}{table.caption.37}}
\newlabel{tbl:OCW}{{4.5}{48}{Our timbre classification of participant drawn custom waveforms\relax }{table.caption.37}{}}
\@writefile{toc}{\contentsline {subsection}{\numberline {4.3.3}Response to the Software}{49}{subsection.4.3.3}}
\@writefile{toc}{\contentsline {chapter}{\numberline {5}Conclusion}{51}{chapter.5}}
\@writefile{lof}{\addvspace {10\p@ }}
\@writefile{lot}{\addvspace {10\p@ }}
\@writefile{lol}{\addvspace {10\p@ }}
\@writefile{loa}{\addvspace {10\p@ }}
\@writefile{toc}{\contentsline {section}{\numberline {5.1}Future Works}{51}{section.5.1}}
\@writefile{toc}{\contentsline {section}{\numberline {5.2}Concluding Thoughts}{51}{section.5.2}}
\@writefile{toc}{\vskip .66\baselineskip \relax \hbox to \hsize {APPENDIX \hfil PAGE}}
\@writefile{toc}{\contentsline {chapter}{\numberline {A}C Sharp Code}{53}{appendix.A}}
\@writefile{lof}{\addvspace {10\p@ }}
\@writefile{lot}{\addvspace {10\p@ }}
\@writefile{lol}{\addvspace {10\p@ }}
\@writefile{loa}{\addvspace {10\p@ }}
\newlabel{lst:manager}{{A.1}{53}{Manager Class}{lstlisting.A.1}{}}
\@writefile{lol}{\contentsline {lstlisting}{\numberline {A.1}Manager Class}{53}{lstlisting.A.1}}
\newlabel{lst:renderer}{{A.2}{55}{Mesh Line Renderer Class}{lstlisting.A.2}{}}
\@writefile{lol}{\contentsline {lstlisting}{\numberline {A.2}Mesh Line Renderer Class}{55}{lstlisting.A.2}}
\newlabel{lst:soundscript}{{A.3}{63}{Audio Class}{lstlisting.A.3}{}}
\@writefile{lol}{\contentsline {lstlisting}{\numberline {A.3}Audio Class}{63}{lstlisting.A.3}}
\citation{*}
\bibstyle{plainnat}
\bibdata{references}
\bibcite{noauthor_audacity_nodate}{{1}{}{{noa}}{{}}}
\bibcite{noauthor_sound_nodate}{{2}{}{{noa}}{{}}}
\bibcite{noauthor_vive_nodate}{{3}{}{{noa}}{{}}}
\bibcite{ballora_essentials_2003}{{4}{2003}{{Ballora}}{{}}}
\bibcite{dodge_computer_1997}{{5}{1997}{{Dodge and Jerse}}{{}}}
\bibcite{fusedvr_building_2016}{{6}{2016}{{FusedVR}}{{}}}
\bibcite{la_burthe_procedural_2012}{{7}{2012}{{La~Burthe and Hen}}{{}}}
\bibcite{mihelj_introduction_2014}{{8}{2014}{{Mihelj et~al.}}{{Mihelj, Novak, and Begus}}}
\bibcite{nov_explaining_nodate}{{9}{}{{Nov}}{{}}}
\bibcite{sherman_understanding_2002}{{10}{2002}{{Sherman and Craig}}{{}}}
\bibcite{sievers_young_nodate}{{11}{}{{Sievers}}{{}}}
\bibcite{zumbahlen_phase_nodate}{{12}{}{{Zumbahlen}}{{}}}
\@writefile{toc}{\contentsline {chapter}{References}{66}{appendix*.38}}
\@writefile{toc}{\contentsline {chapter}{Index}{67}{section*.39}}
